677.0;258.0;53.333332
294.0;234.0;59.333332
180.0;521.0;55.333332
735.0;629.0;63.333332
465.0;563.0;55.333332
613.0;527.0;53.333332
573.0;378.0;59.333332
324.0;629.0;55.333332
172.0;673.0;55.333332
327.0;479.0;53.333332
219.0;373.0;55.333332
411.0;348.0;59.333332
521.0;227.0;57.333332
282.0;774.0;51.333332
